…
    Fig_name <- paste0("./outputFig/", lubridate::as_date(unlist(raster(temp_data)@z)), ".jpg")
    ggsave(p, filename = Fig_name, dpi = 100)
    p
  }))
```

```
#> # A tibble: 120 × 3
#> # Groups:   id [120]
#>       id data             gg_fig
#>    <int> <list>           <list>
#>  1     1 <tibble [1 × 0]> <gg>  
#>  2     2 <tibble [1 × 0]> <gg>  
#>  3     3 <tibble [1 × 0]> <gg>  
#>  4     4 <tibble [1 × 0]> <gg>  
#>  5     5 <tibble [1 × 0]> <gg>  
#>  6     6 <tibble [1 × 0]> <gg>  
#>  7     7 <tibble [1 × 0]> <gg>  
#>  8     8 <tibble [1 × 0]> <gg>  
#>  9     9 <tibble [1 × 0]> <gg>  
#> 10    10 <tibble [1 × 0]> <gg>  
#> # ℹ 110 more rows
```
…
