…
```
##    user  system elapsed 
##    0.00    0.00    1.93
```

```r
stopCluster(cl)
head(res)
```

```
## [[1]]
## # A tibble: 105 × 4
##        r     c       Y Y_fixT
##    <int> <int>   <dbl>  <dbl>
##  1    37     1   2.40    3.86
##  2    37     2  -7.13   -5.29
##  3    37     3  -0.245  -1.26
##  4    37     4   3.02    4.12
##  5    37     5  -1.78   -1.61
##  6    37     6 -11.0    -9.79
##  7    37     7  28.6    29.0 
##  8    37     8   1.97    2.02
##  9    37     9 -11.9   -11.0 
## 10    37    10   5.52    5.35
## # ℹ 95 more rows
## 
## [[2]]
## # A tibble: 106 × 4
##        r     c       Y Y_fixT
##    <int> <int>   <dbl>  <dbl>
##  1    38     1  -0.941  -1.50
##  2    38     2  -2.10   -2.53
##  3    38     3  -1.68   -1.75
##  4    38     4  -6.25   -6.88
##  5    38     5  24.8    24.8 
##  6    38     6   6.95    6.59
##  7    38     7 -18.6   -19.0 
##  8    38     8  -6.76   -7.05
##  9    38     9  -7.36   -7.57
## 10    38    10  11.8    11.8 
## # ℹ 96 more rows
## 
## [[3]]
## # A tibble: 106 × 4
##        r     c      Y  Y_fixT
##    <int> <int>  <dbl>   <dbl>
##  1    39     1   4.17   5.29 
##  2    39     2   7.29   8.80 
##  3    39     3  -8.61  -9.21 
##  4    39     4  11.1   11.5  
##  5    39     5  -1.12  -0.934
##  6    39     6  11.9   12.2  
##  7    39     7  16.9   16.6  
##  8    39     8  10.1   10.1  
##  9    39     9 -21.0  -21.2  
## 10    39    10  -9.32  -9.99 
## # ℹ 96 more rows
## 
## [[4]]
## # A tibble: 107 × 4
##        r     c       Y  Y_fixT
##    <int> <int>   <dbl>   <dbl>
##  1    40     1 -10.6   -11.6  
##  2    40     2   5.43    3.90 
##  3    40     3   9.07    8.37 
##  4    40     4  -1.52   -1.77 
##  5    40     5  10.8     9.78 
##  6    40     6  -1.30   -1.79 
##  7    40     7   6.86    6.47 
##  8    40     8  -0.155  -0.638
##  9    40     9  -2.57   -3.07 
## 10    40    10  10.5     9.82 
## # ℹ 97 more rows
## 
## [[5]]
## # A tibble: 108 × 4
##        r     c       Y  Y_fixT
##    <int> <int>   <dbl>   <dbl>
##  1    41     1 -14.7   -14.9  
##  2    41     2  -4.44   -3.77 
##  3    41     3  -4.53   -4.57 
##  4    41     4  15.5    14.8  
##  5    41     5 -17.0   -16.7  
##  6    41     6 -16.9   -17.2  
##  7    41     7  12.4    12.2  
##  8    41     8  18.5    18.1  
##  9    41     9  -0.705  -0.906
## 10    41    10 -10.9   -11.3  
## # ℹ 98 more rows
## 
## [[6]]
## # A tibble: 109 × 4
##        r     c      Y Y_fixT
##    <int> <int>  <dbl>  <dbl>
##  1    42     1 -14.7  -14.2 
##  2    42     2   1.77   1.22
##  3    42     3   6.49   6.53
##  4    42     4 -17.8  -16.9 
##  5    42     5  -9.24  -9.37
##  6    42     6   7.61   8.14
##  7    42     7   7.77   8.20
##  8    42     8   3.61   3.95
##  9    42     9  -5.53  -4.82
## 10    42    10  -8.84  -8.38
## # ℹ 99 more rows
```
…
