…
```
#> # A tibble: 79 × 20
#> # Groups:   model.name [9]
#>    model.name       model group bins  `#total` `#train` `#test` `%train` `%test`
#>    <chr>            <chr> <int> <chr>    <dbl>    <dbl>   <dbl>    <dbl>   <dbl>
#>  1 AdaBoost.M1_mod… AdaB…     1 (-In…       77       58      19     0.09    0.07
#>  2 AdaBoost.M1_mod… AdaB…     2 (0.0…      134       93      41     0.14    0.14
#>  3 AdaBoost.M1_mod… AdaB…     3 (0.0…       71       51      20     0.08    0.07
#>  4 AdaBoost.M1_mod… AdaB…     4 (0.1…      120       85      35     0.13    0.12
#>  5 AdaBoost.M1_mod… AdaB…     5 (0.1…       83       52      31     0.08    0.11
#>  6 AdaBoost.M1_mod… AdaB…     6 (0.1…       94       69      25     0.1     0.09
#>  7 AdaBoost.M1_mod… AdaB…     7 (0.2…       94       67      27     0.1     0.09
#>  8 AdaBoost.M1_mod… AdaB…     8 (0.2…      100       74      26     0.11    0.09
#>  9 AdaBoost.M1_mod… AdaB…     9 (0.3…      101       66      35     0.1     0.12
#> 10 AdaBoost.M1_mod… AdaB…    10 (0.4…       93       62      31     0.09    0.11
#> # ℹ 69 more rows
#> # ℹ 11 more variables: `%train_B` <dbl>, `%test_B` <dbl>, `%train_cumG` <dbl>,
#> #   `%train_cumB` <dbl>, `%test_cumG` <dbl>, `%test_cumB` <dbl>,
#> #   `train_K-S` <dbl>, `test_K-S` <dbl>, train_Lift <dbl>, test_Lift <dbl>,
#> #   PSI <dbl>
```
…
