基于R语言caret包的上海市钉螺分布预测 | Hugo XMag
…
    test %>%
      mutate(pred = predict(object = x, newdata = test, type = "prob")[, "X1"]) %>%
      mutate(class = ifelse(class == "X0", 0, 1))
  })) %>%
  mutate(perf.tab = pmap(.l = list(train.pred, test.pred, model.name), .f = function(x, y, z) {
    perf_table(train_pred = x, test_pred = y, target = "class", score = "pred") %>%
      mutate(bins = str_sub(bins, 4, nchar(bins))) %>%
      mutate(group = 1:n()) %>%
      mutate(model = z) %>%
      dplyr::select(model, group, everything())
  })) %>%
  dplyr::select(perf.tab) %>%
  unnest(perf.tab)

#> # A tibble: 79 × 20
#> # Groups:   model.name [9]
#>    model.name       model group bins  `#total` `#train` `#test` `%train` `%test`
#>    <chr>            <chr> <int> <chr>    <dbl>    <dbl>   <dbl>    <dbl>   <dbl>
#>  1 AdaBoost.M1_mod… AdaB…     1 (-In…      232      160      72     0.24    0.25
#>  2 AdaBoost.M1_mod… AdaB…     2 (0,0…       47       34      13     0.05    0.04
#>  3 AdaBoost.M1_mod… AdaB…     3 (0.0…      122       91      31     0.13    0.11
#>  4 AdaBoost.M1_mod… AdaB…     4 (0.0…       81       54      27     0.08    0.09
#>  5 AdaBoost.M1_mod… AdaB…     5 (0.1…      110       71      39     0.1     0.13
#>  6 AdaBoost.M1_mod… AdaB…     6 (0.1…       87       65      22     0.1     0.08
#>  7 AdaBoost.M1_mod… AdaB…     7 (0.2…       93       68      25     0.1     0.09
#>  8 AdaBoost.M1_mod… AdaB…     8 (0.3…       89       65      24     0.1     0.08
#>  9 AdaBoost.M1_mod… AdaB…     9 (0.4…      108       71      37     0.1     0.13
#> 10 C5.0_model       C5.0…     1 (-In…      355      251     104     0.37    0.36
#> # ℹ 69 more rows
#> # ℹ 11 more variables: `%train_B` <dbl>, `%test_B` <dbl>, `%train_cumG` <dbl>,
#> #   `%train_cumB` <dbl>, `%test_cumG` <dbl>, `%test_cumB` <dbl>,
#> #   `train_K-S` <dbl>, `test_K-S` <dbl>, train_Lift <dbl>, test_Lift <dbl>,
#> #   PSI <dbl>
…
