…
```r
head(th_apply)
```

```
#> [[1]]
#> # A tibble: 1,464 × 1
#>    station1
#>       <dbl>
#>  1     0   
#>  2     0   
#>  3     4.99
#>  4    42.1 
#>  5    95.6 
#>  6   135.  
#>  7   135.  
#>  8   118.  
#>  9    67.7 
#> 10    38.6 
#> # ℹ 1,454 more rows
#> 
#> [[2]]
#> # A tibble: 1,464 × 1
#>    station2
#>       <dbl>
#>  1      0  
#>  2      0  
#>  3      0  
#>  4      0  
#>  5     40.3
#>  6     76.5
#>  7    107. 
#>  8    109. 
#>  9     66.2
#> 10     27.2
#> # ℹ 1,454 more rows
#> 
#> [[3]]
#> # A tibble: 1,464 × 1
#>    station3
#>       <dbl>
#>  1        0
#>  2        0
#>  3        0
#>  4        0
#>  5        0
#>  6        0
#>  7        0
#>  8        0
#>  9        0
#> 10        0
#> # ℹ 1,454 more rows
#> 
#> [[4]]
#> # A tibble: 1,464 × 1
#>    station4
#>       <dbl>
#>  1    139. 
#>  2    122. 
#>  3     92.0
#>  4     61.6
#>  5     28.7
#>  6     17.3
#>  7     14.8
#>  8     27.5
#>  9     40.5
#> 10     69.6
#> # ℹ 1,454 more rows
#> 
#> [[5]]
#> # A tibble: 1,464 × 1
#>    station5
#>       <dbl>
#>  1      0  
#>  2      0  
#>  3     18.7
#>  4     73.9
#>  5    152. 
#>  6    210. 
#>  7    238. 
#>  8    199. 
#>  9    108. 
#> 10     36.7
#> # ℹ 1,454 more rows
#> 
#> [[6]]
#> # A tibble: 1,464 × 1
#>    station6
#>       <dbl>
#>  1    181. 
#>  2    126. 
#>  3    109. 
#>  4     72.3
#>  5     39.5
#>  6     20.3
#>  7     16.2
#>  8     27.8
#>  9     52.1
#> 10     87.0
#> # ℹ 1,454 more rows
```
…
